<?xml version="1.0" encoding="iso-8859-1"?>
<!-- Generator: Adobe Illustrator 19.0.0, SVG Export Plug-In . SVG Version: 6.00 Build 0)  -->
<svg xmlns="http://www.w3.org/2000/svg" xmlns:xlink="http://www.w3.org/1999/xlink" version="1.1" id="Capa_1" x="0px" y="0px" viewBox="0 0 512 512" style="enable-background:new 0 0 512 512;" xml:space="preserve" width="512px" height="512px">
<g>
	<g>
		<path d="M416.814,119.734v40.412c0,4.15,3.364,7.515,7.515,7.515c4.151,0,7.515-3.365,7.515-7.515v-38.638L455.097,75    c0.518-1.035,0.794-2.201,0.794-3.36V7.515c0-6.065-7.161-9.659-12.023-6.012l-27.554,20.665L388.759,1.503    c-2.671-2.004-6.346-2.004-9.018,0l-27.554,20.665L324.634,1.503c-2.671-2.004-6.346-2.004-9.018,0l-27.554,20.665L260.509,1.503    c-2.671-2.004-6.346-2.004-9.018,0l-27.554,20.665L196.384,1.503c-2.671-2.004-6.346-2.004-9.018,0l-27.554,20.665L132.258,1.503    c-2.671-2.004-6.346-2.004-9.018,0L95.687,22.168L68.133,1.503C63.271-2.144,56.11,1.45,56.11,7.515V71.64    c0,1.158,0.276,2.325,0.794,3.361l23.253,46.508v268.984L56.903,437c-0.518,1.035-0.794,2.201-0.794,3.36v64.125    c0,6.065,7.161,9.659,12.023,6.012l27.554-20.665l27.554,20.665c2.671,2.004,6.346,2.004,9.018,0l27.554-20.665l27.554,20.665    c2.671,2.004,6.346,2.004,9.018,0l27.554-20.665l27.554,20.665c2.671,2.004,6.346,2.004,9.018,0l27.554-20.665l27.554,20.665    c2.671,2.004,6.346,2.004,9.018,0l27.554-20.665l27.554,20.665c2.671,2.004,6.346,2.004,9.018,0l27.554-20.665l27.554,20.665    c4.865,3.65,12.023,0.045,12.023-6.012V440.36c0-1.158-0.276-2.325-0.794-3.361l-23.253-46.508V196.885    c0-4.15-3.364-7.515-7.515-7.515c-4.151,0-7.515,3.365-7.515,7.515v195.382c0,1.167,0.272,2.318,0.794,3.361l18.608,37.219H75.784    l18.608-37.219c0.522-1.043,0.794-2.193,0.794-3.361V119.734c0-1.167-0.272-2.318-0.794-3.361L75.784,79.155h360.433    l-18.608,37.219C417.086,117.417,416.814,118.567,416.814,119.734z M440.861,447.875v41.581l-20.039-15.029    c-2.671-2.004-6.346-2.004-9.018,0l-27.554,20.665l-27.554-20.665c-1.336-1.002-2.923-1.503-4.509-1.503s-3.173,0.501-4.509,1.503    l-27.554,20.665l-27.554-20.665c-2.671-2.004-6.346-2.004-9.018,0L256,495.092l-27.554-20.665c-2.671-2.004-6.346-2.004-9.018,0    l-27.554,20.665l-27.554-20.665c-2.671-2.004-6.346-2.004-9.018,0l-27.554,20.665l-27.554-20.665    c-2.671-2.004-6.346-2.004-9.018,0l-20.039,15.029v-41.581H440.861z M71.139,64.125V22.544l20.039,15.029    c2.671,2.004,6.346,2.004,9.018,0l27.554-20.665l27.554,20.665c2.671,2.004,6.346,2.004,9.018,0l27.554-20.665l27.554,20.665    c2.671,2.004,6.346,2.004,9.018,0L256,16.908l27.554,20.665c2.671,2.004,6.346,2.004,9.018,0l27.554-20.665l27.554,20.665    c2.671,2.004,6.346,2.004,9.018,0l27.554-20.665l27.554,20.665c2.671,2.004,6.346,2.004,9.018,0l20.039-15.029v41.581H71.139z" fill="#FFFFFF"/>
	</g>
</g>
<g>
	<g>
		<path d="M344.554,201.452c-6.19-6.19-14.216-10.101-22.769-11.238c-1.137-8.553-5.048-16.579-11.238-22.769    c-7.476-7.476-17.414-11.592-27.986-11.592c-10.572,0-20.511,4.116-27.987,11.592c-13.615,13.615-15.218,34.762-4.807,50.151    l-35.723,35.723c-6.492-4.409-14.15-6.779-22.17-6.779c-10.572,0-20.51,4.117-27.985,11.593    c-7.476,7.475-11.593,17.413-11.593,27.986c0,10.572,4.117,20.51,11.592,27.986c6.19,6.19,14.216,10.101,22.77,11.238    c1.138,8.554,5.048,16.579,11.239,22.769c7.715,7.715,17.85,11.573,27.986,11.573c10.134,0,20.269-3.858,27.985-11.573    c7.476-7.475,11.593-17.414,11.593-27.986c0-8.021-2.371-15.679-6.779-22.171l35.722-35.723    c15.389,10.408,36.537,8.808,50.152-4.807c7.476-7.475,11.593-17.413,11.593-27.986    C356.147,218.866,352.03,208.928,344.554,201.452z M333.926,246.796c-9.569,9.571-25.145,9.573-34.715,0    c-2.936-2.934-7.693-2.934-10.628,0L243.24,292.14c-2.893,2.893-2.894,7.735,0.001,10.627c4.636,4.636,7.19,10.801,7.19,17.358    c0,6.557-2.554,12.722-7.19,17.358c-9.572,9.569-25.145,9.572-34.716,0c-4.975-4.974-7.575-11.864-7.134-18.904    c0.28-4.449-3.525-8.246-7.97-7.97c-7.036,0.44-13.93-2.16-18.903-7.134c-9.464-9.463-9.464-25.253,0-34.716    c9.461-9.463,25.252-9.463,34.714,0c2.894,2.894,7.734,2.893,10.628,0l45.344-45.344c2.935-2.935,2.935-7.692,0-10.627    c-9.572-9.572-9.572-25.145,0-34.716c9.462-9.464,25.254-9.461,34.716,0c4.975,4.974,7.575,11.864,7.133,18.903    c-0.28,4.449,3.524,8.247,7.97,7.971c7.035-0.438,13.93,2.16,18.904,7.134C343.39,221.543,343.39,237.333,333.926,246.796z" fill="#FFFFFF"/>
	</g>
</g>
<g>
	<g>
		<circle cx="282.211" cy="195.081" r="7.515" fill="#FFFFFF"/>
	</g>
</g>
<g>
	<g>
		<circle cx="254.928" cy="257.773" r="7.515" fill="#FFFFFF"/>
	</g>
</g>
<g>
	<g>
		<circle cx="315.857" cy="229.438" r="7.515" fill="#FFFFFF"/>
	</g>
</g>
<g>
	<g>
		<circle cx="191.875" cy="285.407" r="7.515" fill="#FFFFFF"/>
	</g>
</g>
<g>
	<g>
		<circle cx="225.53" cy="319.775" r="7.515" fill="#FFFFFF"/>
	</g>
</g>
<g>
	<g>
		<path d="M256,96.188c-12.983,0-23.546,10.563-23.546,23.546c0,12.983,10.563,23.546,23.546,23.546s23.546-10.563,23.546-23.546    C279.546,106.75,268.983,96.188,256,96.188z M256,128.25c-4.696,0-8.517-3.82-8.517-8.517s3.82-8.517,8.517-8.517    s8.517,3.82,8.517,8.517S260.696,128.25,256,128.25z" fill="#FFFFFF"/>
	</g>
</g>
<g>
	<g>
		<path d="M336.157,96.188c-12.983,0-23.546,10.563-23.546,23.546c0,12.983,10.563,23.546,23.546,23.546    s23.546-10.563,23.546-23.546C359.703,106.75,349.14,96.188,336.157,96.188z M336.157,128.25c-4.696,0-8.517-3.82-8.517-8.517    s3.82-8.517,8.517-8.517s8.517,3.82,8.517,8.517S340.853,128.25,336.157,128.25z" fill="#FFFFFF"/>
	</g>
</g>
<g>
	<g>
		<path d="M175.843,96.188c-12.983,0-23.546,10.563-23.546,23.546c0,12.983,10.563,23.546,23.546,23.546    s23.546-10.563,23.546-23.546C199.389,106.75,188.827,96.188,175.843,96.188z M175.843,128.25c-4.696,0-8.517-3.82-8.517-8.517    s3.82-8.517,8.517-8.517s8.517,3.82,8.517,8.517S180.54,128.25,175.843,128.25z" fill="#FFFFFF"/>
	</g>
</g>
<g>
	<g>
		<path d="M256,368.72c-12.983,0-23.546,10.563-23.546,23.546c0,12.983,10.563,23.546,23.546,23.546s23.546-10.563,23.546-23.546    C279.546,379.283,268.983,368.72,256,368.72z M256,400.783c-4.696,0-8.517-3.82-8.517-8.517c0-4.696,3.82-8.517,8.517-8.517    s8.517,3.82,8.517,8.517C264.517,396.962,260.696,400.783,256,400.783z" fill="#FFFFFF"/>
	</g>
</g>
<g>
	<g>
		<path d="M336.157,368.72c-12.983,0-23.546,10.563-23.546,23.546c0,12.983,10.563,23.546,23.546,23.546    s23.546-10.563,23.546-23.546C359.703,379.283,349.14,368.72,336.157,368.72z M336.157,400.783c-4.696,0-8.517-3.82-8.517-8.517    c0-4.696,3.82-8.517,8.517-8.517s8.517,3.82,8.517,8.517C344.673,396.962,340.853,400.783,336.157,400.783z" fill="#FFFFFF"/>
	</g>
</g>
<g>
	<g>
		<path d="M175.843,368.72c-12.983,0-23.546,10.563-23.546,23.546c0,12.983,10.563,23.546,23.546,23.546    s23.546-10.563,23.546-23.546C199.389,379.283,188.827,368.72,175.843,368.72z M175.843,400.783c-4.696,0-8.517-3.82-8.517-8.517    c0-4.696,3.82-8.517,8.517-8.517s8.517,3.82,8.517,8.517C184.36,396.962,180.54,400.783,175.843,400.783z" fill="#FFFFFF"/>
	</g>
</g>
<g>
</g>
<g>
</g>
<g>
</g>
<g>
</g>
<g>
</g>
<g>
</g>
<g>
</g>
<g>
</g>
<g>
</g>
<g>
</g>
<g>
</g>
<g>
</g>
<g>
</g>
<g>
</g>
<g>
</g>
</svg>
